…
所以，我估计我们只有一两个不可信的重量值的观察结果。事实上，这段代码将证实这一假设:

```r
> dplyr::select(army_ansur, Weightlbs) %>%
    dplyr::arrange(Weightlbs)
# A tibble: 6,068 x 1
   Weightlbs
       <int>
 1         0
 2        86
 3        88
 4        90
 5        95
 6        95
 7        95
 8        96
 9        98
10       100
# ... with 6,058 more rows
```
…
