Text Mining
…
以下是列名。我建议您也花几分钟时间自己探索这些数据:

> colnames(sotu_meta)
[1] "president" "year" "years_active" "party" "sotu_type" 
[6] "text"

text列包含字符串中感兴趣的数据。在我们开始分析数据之前，我们需要对文本进行标记，并将其与每位总统联系起来。那是什么意思？这意味着我们在每个文档的每一行放置一个令牌。令牌可以是字符、单词、单词的 n 元组合或句子。这将为我们应用 tidy 格式程序做好准备:

> sotu_meta %>%
    tidytext::unnest_tokens(word, text) -> sotu_unnest

我们所做的只是告诉unnest_tokens()函数获取列文本并将其转换为名为word的列。我们将看到的函数支持 n 元语法，但默认为单词。它还会自动删除所有大写。当我们处理 n-gram 时，我们将把它设置为 false。下面是新的tibble创造的样子:

> sotu_unnest
# A tibble: 1,965,212 x 6
   president         year  years_active party       sotu_type word 
   <chr>             <int> <chr>        <chr>       <chr>     <chr> 
 1 George Washington 1790  1789-1793    Nonpartisan speech    fellow 
 2 George Washington 1790  1789-1793    Nonpartisan speech    citizens 
 3 George Washington 1790  1789-1793    Nonpartisan speech    of 
 4 George Washington 1790  1789-1793    Nonpartisan speech    the 
 5 George Washington 1790  1789-1793    Nonpartisan speech    senate 
 6 George Washington 1790  1789-1793    Nonpartisan speech    and 
 7 George Washington 1790  1789-1793    Nonpartisan speech    house 
 8 George Washington 1790  1789-1793    Nonpartisan speech    of 
 9 George Washington 1790  1789-1793    Nonpartisan speech    representatives
10 George Washington 1790  1789-1793    Nonpartisan speech    i 
# ... with 1,965,202 more rows
…
为了以整齐的格式去掉停止字，可以使用tidytext包中提供的stop_words数据帧。你把那个tibble称之为环境，然后用词做一个反联接:

> library(tidytext)

> data(stop_words)

> sotu_tidy <- sotu_unnest %>%
    dplyr::anti_join(stop_words, by = "word")

请注意，数据长度从 197 万次观察减少到 778，161 次。现在，您可以继续查看顶部的单词。我不会在下面这样做，但如果你愿意，你可以把它放入数据框中:

> sotu_tidy %>%
    dplyr::count(word, sort = TRUE)
# A tibble: 29,558 x 2
   word           n
   <chr>      <int>
 1 government  7573
 2 congress    5759
 3 united      5102
 4 people      4219
 5 country     3564
 6 public      3413
 7 time        3138
 8 war         2961
 9 american    2853
10 world       2581
# ... with 29,548 more rows
…
我们可以查看包含最多单词的地址:

> sotu_tidy %>%
    dplyr::group_by(year) %>%
    dplyr::summarise(totalWords = length(word)) %>%
    dplyr::arrange(desc(totalWords))
# A tibble: 225 x 2
    year totalWords
   <int>      <int>
 1 1981       18402
 2 1980       17553
 3 1946       12614
 4 1974       11813
 5 1979       11730
 6 1910       11178
 7 1907       10230
 8 1912       10215
 9 1911        9598
10 1899        9504
# ... with 215 more rows

怎么样？最长的两次演讲是由罗纳德·里根发表的，他通常被称为伟大的沟通者。接下来，我们将看看林肯的最高词频，然后为每个单独的地址创建一个词云。

                    林肯的词频

和之前一样，我们将看到林肯用过的前 10 个单词。申请 Abe 地址的过滤器是 1861 到 1864 年:

> sotu_tidy %>%
    dplyr::filter(year > 1860 & year < 1865) %>%
    dplyr::count(word, sort = TRUE)
# A tibble: 3,562 x 2
   word           n
   <chr>      <int>
 1 congress      81
 2 united        81
 3 government    75
 4 people        70
 5 war           65
 6 country       62
 7 time          51
 8 union         50
 9 national      49
10 public        48
# ... with 3,552 more rows
…
你看到一个词可以有多个情感类别。让我们看看林肯在 1862 年试图安抚他的政敌时是否表达了:

> nrc_anger <- tidytext::get_sentiments("nrc") %>% 
    dplyr::filter(sentiment == "anger")

> sotu_tidy %>%
    dplyr::filter(year == 1862) %>%
    dplyr::inner_join(nrc_anger) %>%
    dplyr::count(word, sort = TRUE)
Joining, by = "word"
# A tibble: 62 x 2
   word n
   <chr>       <int>
 1 slavery     13
 2 slave       12
 3 demand       5
 4 force        5
 5 money        5
 6 abolish      4
 7 rebellion    4
 8 cash         3
 9 deportation  3
10 fugitive     3
# ... with 52 more rows
…
战前的总统有负面情绪，我猜是因为事情分崩离析。可以说，布坎南是有史以来最糟糕的总统。即使是吉米·卡特也没有这么糟糕。考虑到重建的困难，不得不在南方打一场近乎游击战，格兰特的积极态度很有意思。他是最被低估的总统。我对历史的反思已经够多了。使用tidytext在文本数据中寻找和描绘情感是一件容易的事情。事实上，这里有一个例子可以说明什么样的词最能驱动positive或negative情绪:

> sotu_tidy %>%
    dplyr::inner_join(tidytext::get_sentiments("bing")) %>%
    dplyr::count(word, sentiment, sort = TRUE) %>%
    dplyr::ungroup()
Joining, by = "word"
# A tibble: 3,592 x 3
   word sentiment n
        <chr> <chr>    <int>
 1      peace positive 2021
 2       free positive 1306
 3   progress positive 1157
 4    support positive  961
 5 protection positive  864
 6     proper positive  840
 7  recommend positive  836
 8       debt negative  795
 9    freedom positive  744
10     secure positive  724
# ... with 3,582 more rows
…
                    N-grams

例如，在二元或三元模型中观察单词的组合可以帮助你理解单词之间的关系。再次使用 tidy 方法，我们将创建二元模型，并了解这些关系，以从文本中提取见解。我将继续林肯总统的主题，因为这将允许你比较你从 n-grams 和单词中获得的东西。开始很容易，因为你只需指定要加入的单词数。请注意，在下面的代码中，我保持了单词的大写:

> sotu_bigrams <- sotu_meta %>%
    dplyr::filter(year > 1860 & year < 1865) %>%
    tidytext::unnest_tokens(bigram, text, token = "ngrams", n = 2, 
    to_lower =   FALSE)

让我们来看看这个:

> sotu_bigrams %>%
    dplyr::count(bigram, sort = TRUE)
# A tibble: 17,687 x 2
   bigram n
   <chr>         <int>
 1 of the        509
 2 to the        180
 3 in the        146
 4 by the         97
 5 for the        94
 6 have been      82
 7 United States  79
 8 and the        76
 9 has been       76
10 the United     73
# ... with 17,677 more rows
…
> bigrams_separated <- sotu_bigrams %>%
    tidyr::separate(bigram, c("word1", "word2"), sep = " ")

> bigrams_filtered <- bigrams_separated %>%
    dplyr::filter(!word1 %in% stop_words$word) %>%
    dplyr::filter(!word2 %in% stop_words$word)

现在，看看林肯的二元模型是有意义的:

> bigram_counts <- bigrams_filtered %>% 
    dplyr::count(word1, word2, sort = TRUE)

> bigram_counts
# A tibble: 3,488 x 3
   word1   word2      n
   <chr>   <chr>  <int>
 1 United  States    79
 2 public  debt      11
 3 public  lands     10
 4 Great   Britain    9
 5 civil   war        8
 6 I       recommend  8
 7 naval   service    8
 8 annual  message    7
 9 foreign nations    7
10 free    colored    7
# ... with 3,478 more rows
…
